{
    "@class": "com.kony.gen.viz.model.component.KVizButton",
    "DNDConfig": null,
    "__parentReadjusting__": false,
    "_height_": {
        "type": "string",
        "value": "50dp"
    },
    "_left_": {
        "type": "string",
        "value": "58dp"
    },
    "_margin_": [
        6,
        6,
        6,
        6
    ],
    "_padding_": [
        0,
        0,
        0,
        0
    ],
    "_skin_": "s3bfbc2f28c14e83836c5b259b1df23f",
    "_text_": "Page 3",
    "_top_": {
        "type": "string",
        "value": "142dp"
    },
    "_width_": {
        "type": "string",
        "value": "300dp"
    },
    "canUpdateUI": true,
    "containerweight": 100,
    "contentalignment": 5,
    "displaytext": true,
    "focusskin": "sb215457019043be9fc1caa6bf0c6cc9",
    "id": "Page3Btn",
    "ide_onClick": "AS_Button_j145e0cde5854284802d36686264c064",
    "info": null,
    "iscustomlayout": false,
    "isvisible": true,
    "kuid": "ff2f0078103842a0918e91ecc459dbc8",
    "name": "kony.ui.Button",
    "parent": "Page1",
    "pf": "Page1",
    "retaincontentalignment": false,
    "retainflexpositionproperties": false,
    "wType": "Button",
    "zindex": 1
}