{
    "@class": "com.kony.gen.viz.model.component.KVizButton",
    "DNDConfig": null,
    "__parentReadjusting__": false,
    "_height_": {
        "type": "string",
        "value": "50dp"
    },
    "_left_": {
        "type": "string",
        "value": "17dp"
    },
    "_margin_": [
        6,
        6,
        6,
        6
    ],
    "_padding_": [
        0,
        0,
        0,
        0
    ],
    "_skin_": "s3bfbc2f28c14e83836c5b259b1df23f",
    "_text_": "Page 3",
    "_top_": {
        "type": "string",
        "value": "258dp"
    },
    "_width_": {
        "type": "string",
        "value": "300dp"
    },
    "canUpdateUI": true,
    "containerweight": 100,
    "contentalignment": 5,
    "displaytext": true,
    "focusskin": "sb215457019043be9fc1caa6bf0c6cc9",
    "id": "Page3Btn",
    "ide_onClick": "AS_Button_iaf4248a2568485d924ca4304bbbb039",
    "info": null,
    "iscustomlayout": false,
    "isvisible": true,
    "kuid": "e66188f08e6249b0a391beed2af0393e",
    "name": "kony.ui.Button",
    "parent": "Page4",
    "pf": "Page4",
    "retaincontentalignment": false,
    "retainflexpositionproperties": false,
    "wType": "Button",
    "zindex": 1
}