{
    "AS_Button_cde07286eb2a46f38e1d5db4941c4216": {
        "id": "AS_Button_cde07286eb2a46f38e1d5db4941c4216",
        "type": "ACTION_SEQUENCE",
        "params": [{
            "datatype": "collection",
            "name": "eventobject"
        }],
        "contextObj": {
            "name": "Page2",
            "type": "forms",
            "platform": null,
            "KUID": "g5ddc994936045589cb67ea8bb0556f4"
        },
        "language": "js",
        "actions": [{
            "id": "NAVIGATE_TO_FORM___fefca53af52a43e5a95c4faa6d3cf972",
            "type": "NAVIGATE_TO_FORM",
            "formId": "Page3",
            "formKUID": "gba52b156d324d7fa131253d65b1ade3",
            "mappings": {},
            "mappingsOrder": [],
            "parentId": "",
            "callbackType": null,
            "enableMappingEditor": true,
            "package": "",
            "navigationObj": "{\n    \"_meta_\": {\n        \"eventName\": \"onClick\",\n        \"widgetId\": \"Page3Btn\"\n    }\n}",
            "isCustomInput": false
        }]
    }
}