{
    "AS_Button_j145e0cde5854284802d36686264c064": {
        "id": "AS_Button_j145e0cde5854284802d36686264c064",
        "type": "ACTION_SEQUENCE",
        "params": [{
            "datatype": "collection",
            "name": "eventobject"
        }],
        "contextObj": {
            "name": "Page1",
            "type": "forms",
            "platform": null,
            "KUID": "c74e0b411b7c4e03bc6a6d8d3fa120cb"
        },
        "language": "js",
        "actions": [{
            "id": "NAVIGATE_TO_FORM___j763f76a17b3456fbba43c5ec9bcffaa",
            "type": "NAVIGATE_TO_FORM",
            "formId": "Page3",
            "formKUID": "gba52b156d324d7fa131253d65b1ade3",
            "mappings": {},
            "mappingsOrder": [],
            "parentId": "",
            "callbackType": null,
            "enableMappingEditor": true,
            "package": "",
            "navigationObj": "{\n    \"_meta_\": {\n        \"eventName\": \"onClick\",\n        \"widgetId\": \"Page3Btn\"\n    }\n}",
            "isCustomInput": false
        }]
    }
}